[T] 2021-03-01 17:01:11.6357 ElementFactory Creating element with By.XPath: //ul[@id='homefeatured']/li[2]/div[@class='product-container'] locator... @ YourLogo.Framework.Core.Web.ElementFactory.Create (10)
[T] 2021-03-01 17:01:14.4367 ElementFactory Creating element with By.XPath: //p[@id='add_to_cart']//span[.='Add to cart'] locator... @ YourLogo.Framework.Core.Web.ElementFactory.Create (10)
[T] 2021-03-01 17:01:16.6516 ElementFactory Creating element with By.XPath: //*[@id="layer_cart"]/div[1]/div[2]/div[4]/span locator... @ YourLogo.Framework.Core.Web.ElementFactory.Create (10)
[T] 2021-03-01 17:01:16.7014 ElementFactory Creating element with By.XPath: //*[@id="header"]/div[3]/div/div/div[3]/div/a/span[1] locator... @ YourLogo.Framework.Core.Web.ElementFactory.Create (10)
[T] 2021-03-01 17:01:20.2553 ElementFactory Creating element with By.ClassName[Contains]: login locator... @ YourLogo.Framework.Core.Web.ElementFactory.Create (10)
[I] 2021-03-01 17:01:23.3005 AuthenticationPage Clicking 'Create account'... @ YourLogo.UI.Pages.AuthenticationPage.ClickCreateAccount (26)
[T] 2021-03-01 17:01:23.3005 ElementFactory Creating element with By.Id: SubmitCreate locator... @ YourLogo.Framework.Core.Web.ElementFactory.Create (10)
[I] 2021-03-01 17:01:23.3694 AuthenticationPage Getting error message... @ YourLogo.UI.Pages.AuthenticationPage.GetError (32)
[T] 2021-03-01 17:01:23.9074 ElementFactory Creating element with By.Id: create_account_error locator... @ YourLogo.Framework.Core.Web.ElementFactory.Create (10)
[D] 2021-03-01 17:01:23.9292 AuthenticationPage [Invalid email address.] @ YourLogo.UI.Pages.AuthenticationPage.GetError (35)
[T] 2021-03-01 17:01:25.2125 ElementFactory Creating element with By.ClassName[Contains]: login locator... @ YourLogo.Framework.Core.Web.ElementFactory.Create (10)
[I] 2021-03-01 17:01:26.5968 AuthenticationPage Setting 'blablabla' to 'Email' field... @ YourLogo.UI.Pages.AuthenticationPage.SetEmail (41)
[T] 2021-03-01 17:01:26.5968 ElementFactory Creating element with By.Id: email_create locator... @ YourLogo.Framework.Core.Web.ElementFactory.Create (10)
[T] 2021-03-01 17:01:26.6277 ElementFactory Creating element with By.Id: email_create locator... @ YourLogo.Framework.Core.Web.ElementFactory.Create (10)
[I] 2021-03-01 17:01:26.6995 AuthenticationPage Clicking 'Create account'... @ YourLogo.UI.Pages.AuthenticationPage.ClickCreateAccount (26)
[T] 2021-03-01 17:01:26.6995 ElementFactory Creating element with By.Id: SubmitCreate locator... @ YourLogo.Framework.Core.Web.ElementFactory.Create (10)
[I] 2021-03-01 17:01:26.7634 AuthenticationPage Getting error message... @ YourLogo.UI.Pages.AuthenticationPage.GetError (32)
[T] 2021-03-01 17:01:27.8344 ElementFactory Creating element with By.Id: create_account_error locator... @ YourLogo.Framework.Core.Web.ElementFactory.Create (10)
[D] 2021-03-01 17:01:27.8518 AuthenticationPage [Invalid email address.] @ YourLogo.UI.Pages.AuthenticationPage.GetError (35)
[T] 2021-03-01 17:01:29.0832 ElementFactory Creating element with By.ClassName[Contains]: login locator... @ YourLogo.Framework.Core.Web.ElementFactory.Create (10)
[I] 2021-03-01 17:01:31.8447 AuthenticationPage Setting 'mymail@gmail.com' to 'Email' field... @ YourLogo.UI.Pages.AuthenticationPage.SetEmail (41)
[T] 2021-03-01 17:01:31.8457 ElementFactory Creating element with By.Id: email_create locator... @ YourLogo.Framework.Core.Web.ElementFactory.Create (10)
[T] 2021-03-01 17:01:31.8706 ElementFactory Creating element with By.Id: email_create locator... @ YourLogo.Framework.Core.Web.ElementFactory.Create (10)
[I] 2021-03-01 17:01:31.9272 AuthenticationPage Clicking 'Create account'... @ YourLogo.UI.Pages.AuthenticationPage.ClickCreateAccount (26)
[T] 2021-03-01 17:01:31.9272 ElementFactory Creating element with By.Id: SubmitCreate locator... @ YourLogo.Framework.Core.Web.ElementFactory.Create (10)
[I] 2021-03-01 17:01:34.2624 CreateAccountPage Getting value from 'Email' from field... @ YourLogo.UI.Pages.CreateAccountPage.GetEmail (23)
[T] 2021-03-01 17:01:34.2624 ElementFactory Creating element with By.Id: email locator... @ YourLogo.Framework.Core.Web.ElementFactory.Create (10)
[D] 2021-03-01 17:01:34.2803 CreateAccountPage [mymail@gmail.com] @ YourLogo.UI.Pages.CreateAccountPage.GetEmail (25)
[T] 2021-03-01 17:04:32.1650 ElementFactory Creating element with By.ClassName[Contains]: login locator... @ YourLogo.Framework.Core.Web.ElementFactory.Create (10)
[I] 2021-03-01 17:04:33.6242 AuthenticationPage Setting 'mymail@gmail.com' to 'Email' field... @ YourLogo.UI.Pages.AuthenticationPage.SetEmail (41)
[T] 2021-03-01 17:04:33.6282 ElementFactory Creating element with By.Id: email_create locator... @ YourLogo.Framework.Core.Web.ElementFactory.Create (10)
[T] 2021-03-01 17:04:33.6551 ElementFactory Creating element with By.Id: email_create locator... @ YourLogo.Framework.Core.Web.ElementFactory.Create (10)
[I] 2021-03-01 17:04:33.7339 AuthenticationPage Clicking 'Create account'... @ YourLogo.UI.Pages.AuthenticationPage.ClickCreateAccount (26)
[T] 2021-03-01 17:04:33.7339 ElementFactory Creating element with By.Id: SubmitCreate locator... @ YourLogo.Framework.Core.Web.ElementFactory.Create (10)
[I] 2021-03-01 17:04:35.6650 CreateAccountPage Getting value from 'Email' from field... @ YourLogo.UI.Pages.CreateAccountPage.GetEmail (23)
[T] 2021-03-01 17:04:35.6650 ElementFactory Creating element with By.Id: email locator... @ YourLogo.Framework.Core.Web.ElementFactory.Create (10)
[D] 2021-03-01 17:04:35.6869 CreateAccountPage [mymail@gmail.com] @ YourLogo.UI.Pages.CreateAccountPage.GetEmail (25)
[T] 2021-03-01 17:52:00.5967 ElementFactory Creating element with By.XPath: //ul[@id='homefeatured']/li[2]/div[@class='product-container'] locator... @ YourLogo.Framework.Core.Web.ElementFactory.Create (10)
[T] 2021-03-01 17:52:13.3147 ElementFactory Creating element with By.XPath: //p[@id='add_to_cart']//span[.='Add to cart'] locator... @ YourLogo.Framework.Core.Web.ElementFactory.Create (10)
[T] 2021-03-01 17:52:14.4804 ElementFactory Creating element with By.XPath: //*[@id="layer_cart"]/div[1]/div[2]/div[4]/span locator... @ YourLogo.Framework.Core.Web.ElementFactory.Create (10)
[T] 2021-03-01 17:52:14.5293 ElementFactory Creating element with By.XPath: //*[@id="header"]/div[3]/div/div/div[3]/div/a/span[1] locator... @ YourLogo.Framework.Core.Web.ElementFactory.Create (10)
[T] 2021-03-01 17:52:18.8551 ElementFactory Creating element with By.ClassName[Contains]: login locator... @ YourLogo.Framework.Core.Web.ElementFactory.Create (10)
[I] 2021-03-01 17:52:20.8687 AuthenticationPage Clicking 'Create account'... @ YourLogo.UI.Pages.AuthenticationPage.ClickCreateAccount (26)
[T] 2021-03-01 17:52:20.8687 ElementFactory Creating element with By.Id: SubmitCreate locator... @ YourLogo.Framework.Core.Web.ElementFactory.Create (10)
[I] 2021-03-01 17:52:20.9230 AuthenticationPage Getting error message... @ YourLogo.UI.Pages.AuthenticationPage.GetError (32)
[T] 2021-03-01 17:52:21.9956 ElementFactory Creating element with By.Id: create_account_error locator... @ YourLogo.Framework.Core.Web.ElementFactory.Create (10)
[D] 2021-03-01 17:52:22.0170 AuthenticationPage [Invalid email address.] @ YourLogo.UI.Pages.AuthenticationPage.GetError (35)
[T] 2021-03-01 17:52:23.3266 ElementFactory Creating element with By.ClassName[Contains]: login locator... @ YourLogo.Framework.Core.Web.ElementFactory.Create (10)
[I] 2021-03-01 17:52:24.6079 AuthenticationPage Setting 'blablabla' to 'Email' field... @ YourLogo.UI.Pages.AuthenticationPage.SetEmail (41)
[T] 2021-03-01 17:52:24.6079 ElementFactory Creating element with By.Id: email_create locator... @ YourLogo.Framework.Core.Web.ElementFactory.Create (10)
[T] 2021-03-01 17:52:24.6304 ElementFactory Creating element with By.Id: email_create locator... @ YourLogo.Framework.Core.Web.ElementFactory.Create (10)
[I] 2021-03-01 17:52:24.6877 AuthenticationPage Clicking 'Create account'... @ YourLogo.UI.Pages.AuthenticationPage.ClickCreateAccount (26)
[T] 2021-03-01 17:52:24.6877 ElementFactory Creating element with By.Id: SubmitCreate locator... @ YourLogo.Framework.Core.Web.ElementFactory.Create (10)
[I] 2021-03-01 17:52:24.7429 AuthenticationPage Getting error message... @ YourLogo.UI.Pages.AuthenticationPage.GetError (32)
[T] 2021-03-01 17:52:25.7899 ElementFactory Creating element with By.Id: create_account_error locator... @ YourLogo.Framework.Core.Web.ElementFactory.Create (10)
[D] 2021-03-01 17:52:25.8098 AuthenticationPage [Invalid email address.] @ YourLogo.UI.Pages.AuthenticationPage.GetError (35)
[T] 2021-03-01 17:52:27.3464 ElementFactory Creating element with By.ClassName[Contains]: login locator... @ YourLogo.Framework.Core.Web.ElementFactory.Create (10)
[I] 2021-03-01 17:52:28.6145 AuthenticationPage Setting 'mymail@gmail.com' to 'Email' field... @ YourLogo.UI.Pages.AuthenticationPage.SetEmail (41)
[T] 2021-03-01 17:52:28.6145 ElementFactory Creating element with By.Id: email_create locator... @ YourLogo.Framework.Core.Web.ElementFactory.Create (10)
[T] 2021-03-01 17:52:28.6314 ElementFactory Creating element with By.Id: email_create locator... @ YourLogo.Framework.Core.Web.ElementFactory.Create (10)
[I] 2021-03-01 17:52:28.6893 AuthenticationPage Clicking 'Create account'... @ YourLogo.UI.Pages.AuthenticationPage.ClickCreateAccount (26)
[T] 2021-03-01 17:52:28.6893 ElementFactory Creating element with By.Id: SubmitCreate locator... @ YourLogo.Framework.Core.Web.ElementFactory.Create (10)
[I] 2021-03-01 17:52:30.8299 CreateAccountPage Getting value from 'Email' from field... @ YourLogo.UI.Pages.CreateAccountPage.GetEmail (23)
[T] 2021-03-01 17:52:30.8299 ElementFactory Creating element with By.Id: email locator... @ YourLogo.Framework.Core.Web.ElementFactory.Create (10)
[D] 2021-03-01 17:52:30.8489 CreateAccountPage [mymail@gmail.com] @ YourLogo.UI.Pages.CreateAccountPage.GetEmail (25)
[T] 2021-03-01 17:58:03.6372 ElementFactory Creating element with By.ClassName[Contains]: login locator... @ YourLogo.Framework.Core.Web.ElementFactory.Create (10)
[I] 2021-03-01 17:58:05.3303 AuthenticationPage Setting 'mymail@gmail.com' to 'Email' field... @ YourLogo.UI.Pages.AuthenticationPage.SetEmail (41)
[T] 2021-03-01 17:58:05.3303 ElementFactory Creating element with By.Id: email_create locator... @ YourLogo.Framework.Core.Web.ElementFactory.Create (10)
[T] 2021-03-01 17:58:05.3712 ElementFactory Creating element with By.Id: email_create locator... @ YourLogo.Framework.Core.Web.ElementFactory.Create (10)
[I] 2021-03-01 17:58:05.4540 AuthenticationPage Clicking 'Create account'... @ YourLogo.UI.Pages.AuthenticationPage.ClickCreateAccount (26)
[T] 2021-03-01 17:58:05.4540 ElementFactory Creating element with By.Id: SubmitCreate locator... @ YourLogo.Framework.Core.Web.ElementFactory.Create (10)
[I] 2021-03-01 17:58:07.3702 CreateAccountPage Getting value from 'Email' from field... @ YourLogo.UI.Pages.CreateAccountPage.GetEmail (23)
[T] 2021-03-01 17:58:07.3702 ElementFactory Creating element with By.Id: email locator... @ YourLogo.Framework.Core.Web.ElementFactory.Create (10)
[D] 2021-03-01 17:58:07.3872 CreateAccountPage [mymail@gmail.com] @ YourLogo.UI.Pages.CreateAccountPage.GetEmail (25)
[T] 2021-03-01 18:01:52.1060 ElementFactory Creating element with By.ClassName[Contains]: login locator... @ YourLogo.Framework.Core.Web.ElementFactory.Create (10)
[I] 2021-03-01 18:01:53.7081 AuthenticationPage Setting 'mymail@gmail.com' to 'Email' field... @ YourLogo.UI.Pages.AuthenticationPage.SetEmail (41)
[T] 2021-03-01 18:01:53.7081 ElementFactory Creating element with By.Id: email_create locator... @ YourLogo.Framework.Core.Web.ElementFactory.Create (10)
[T] 2021-03-01 18:01:53.7430 ElementFactory Creating element with By.Id: email_create locator... @ YourLogo.Framework.Core.Web.ElementFactory.Create (10)
[I] 2021-03-01 18:01:53.8168 AuthenticationPage Clicking 'Create account'... @ YourLogo.UI.Pages.AuthenticationPage.ClickCreateAccount (26)
[T] 2021-03-01 18:01:53.8168 ElementFactory Creating element with By.Id: SubmitCreate locator... @ YourLogo.Framework.Core.Web.ElementFactory.Create (10)
[I] 2021-03-01 18:01:56.0812 CreateAccountPage Getting value from 'Email' from field... @ YourLogo.UI.Pages.CreateAccountPage.GetEmail (23)
[T] 2021-03-01 18:01:56.0812 ElementFactory Creating element with By.Id: email locator... @ YourLogo.Framework.Core.Web.ElementFactory.Create (10)
[D] 2021-03-01 18:01:56.0992 CreateAccountPage [mymail@gmail.com] @ YourLogo.UI.Pages.CreateAccountPage.GetEmail (25)
[T] 2021-03-01 18:15:26.7013 ElementFactory Creating element with By.ClassName[Contains]: login locator... @ YourLogo.Framework.Core.Web.ElementFactory.Create (10)
[I] 2021-03-01 18:15:28.4898 AuthenticationPage Setting 'mymail@gmail.com' to 'Email' field... @ YourLogo.UI.Pages.AuthenticationPage.SetEmail (41)
[T] 2021-03-01 18:15:28.4898 ElementFactory Creating element with By.Id: email_create locator... @ YourLogo.Framework.Core.Web.ElementFactory.Create (10)
[T] 2021-03-01 18:15:28.5267 ElementFactory Creating element with By.Id: email_create locator... @ YourLogo.Framework.Core.Web.ElementFactory.Create (10)
[I] 2021-03-01 18:15:28.6085 AuthenticationPage Clicking 'Create account'... @ YourLogo.UI.Pages.AuthenticationPage.ClickCreateAccount (26)
[T] 2021-03-01 18:15:28.6085 ElementFactory Creating element with By.Id: SubmitCreate locator... @ YourLogo.Framework.Core.Web.ElementFactory.Create (10)
[I] 2021-03-01 18:15:30.7779 CreateAccountPage Getting value from 'Email' from field... @ YourLogo.UI.Pages.CreateAccountPage.GetEmail (23)
[T] 2021-03-01 18:15:30.7779 ElementFactory Creating element with By.Id: email locator... @ YourLogo.Framework.Core.Web.ElementFactory.Create (10)
[D] 2021-03-01 18:15:30.7969 CreateAccountPage [mymail@gmail.com] @ YourLogo.UI.Pages.CreateAccountPage.GetEmail (25)
[T] 2021-03-01 18:17:09.8074 ElementFactory Creating element with By.ClassName[Contains]: login locator... @ YourLogo.Framework.Core.Web.ElementFactory.Create (10)
[I] 2021-03-01 18:17:11.5738 AuthenticationPage Setting 'mymail@gmail.com' to 'Email' field... @ YourLogo.UI.Pages.AuthenticationPage.SetEmail (41)
[T] 2021-03-01 18:17:11.5738 ElementFactory Creating element with By.Id: email_create locator... @ YourLogo.Framework.Core.Web.ElementFactory.Create (10)
[T] 2021-03-01 18:17:11.6087 ElementFactory Creating element with By.Id: email_create locator... @ YourLogo.Framework.Core.Web.ElementFactory.Create (10)
[I] 2021-03-01 18:17:11.6825 AuthenticationPage Clicking 'Create account'... @ YourLogo.UI.Pages.AuthenticationPage.ClickCreateAccount (26)
[T] 2021-03-01 18:17:11.6825 ElementFactory Creating element with By.Id: SubmitCreate locator... @ YourLogo.Framework.Core.Web.ElementFactory.Create (10)
[I] 2021-03-01 18:17:13.6758 CreateAccountPage Getting value from 'Email' from field... @ YourLogo.UI.Pages.CreateAccountPage.GetEmail (23)
[T] 2021-03-01 18:17:13.6758 ElementFactory Creating element with By.Id: email locator... @ YourLogo.Framework.Core.Web.ElementFactory.Create (10)
[D] 2021-03-01 18:17:13.6956 CreateAccountPage [mymail@gmail.com] @ YourLogo.UI.Pages.CreateAccountPage.GetEmail (25)
